<svg xmlns="http://www.w3.org/2000/svg" xmlns:xlink="http://www.w3.org/1999/xlink" preserveAspectRatio="xMidYMid" width="69.22" height="70.09" viewBox="0 0 69.22 70.09">
  <defs>
    <style>
      .cls-1 {
        fill: #ff6800;
        fill-rule: evenodd;
      }
    </style>
  </defs>
  <path d="M68.638,32.816 C68.633,33.069 68.530,33.307 68.347,33.488 L32.183,69.813 C31.807,70.186 31.194,70.186 30.821,69.816 L0.290,39.174 C-0.087,38.791 -0.083,38.173 0.299,37.794 L36.470,1.464 C36.647,1.283 36.884,1.180 37.132,1.174 L68.229,0.622 L68.218,-0.009 L68.258,0.622 C68.517,0.627 68.759,0.732 68.939,0.918 C69.119,1.105 69.216,1.352 69.212,1.610 L68.638,32.816 ZM37.530,3.127 L2.336,38.476 L31.501,67.769 L66.515,32.601 L66.694,32.421 L67.261,2.558 L37.530,3.127 ZM54.680,20.999 C53.134,20.999 51.686,20.400 50.604,19.313 C48.357,17.056 48.357,13.383 50.604,11.125 C51.693,10.031 53.141,9.429 54.680,9.429 C56.220,9.429 57.667,10.031 58.756,11.125 C59.839,12.213 60.434,13.666 60.434,15.219 C60.434,16.772 59.839,18.226 58.756,19.313 C57.674,20.400 56.226,20.999 54.680,20.999 ZM57.373,12.489 C56.642,11.755 55.686,11.351 54.680,11.351 C53.658,11.351 52.693,11.755 51.962,12.489 C50.446,14.013 50.446,16.400 51.962,17.924 C52.721,18.686 53.694,19.066 54.667,19.066 C55.641,19.066 56.614,18.686 57.373,17.924 C58.889,16.401 58.889,14.013 57.373,12.489 ZM39.886,30.109 C39.672,30.217 39.384,30.221 39.120,30.118 C38.850,30.014 38.645,29.822 38.533,29.539 C37.879,28.216 36.416,26.880 34.623,26.880 C32.243,26.880 30.821,28.317 30.821,30.729 C30.839,32.895 33.177,33.878 35.027,34.656 C35.333,34.802 35.657,34.940 35.991,35.082 C36.807,35.429 37.652,35.788 38.447,36.375 C39.631,37.251 40.339,38.739 40.339,40.357 C40.339,42.973 38.675,45.209 36.198,45.922 L35.742,46.053 L35.742,47.482 C35.742,48.019 35.308,48.456 34.773,48.456 C34.239,48.456 33.803,48.019 33.803,47.482 L33.803,46.103 L33.318,45.989 C31.515,45.564 29.898,44.216 28.964,42.333 C28.837,42.126 28.808,41.848 28.887,41.570 C28.966,41.290 29.143,41.057 29.360,40.947 C29.471,40.891 29.601,40.863 29.737,40.863 C29.865,40.863 29.998,40.888 30.127,40.938 C30.397,41.042 30.601,41.233 30.713,41.516 C31.373,42.852 32.838,44.201 34.623,44.201 C37.003,44.201 38.425,42.764 38.425,40.352 C38.407,38.154 36.069,37.175 34.220,36.400 C33.915,36.254 33.591,36.116 33.257,35.974 C32.440,35.627 31.596,35.268 30.800,34.680 C29.599,33.794 28.883,32.315 28.883,30.724 C28.883,28.019 30.707,25.703 33.317,25.092 L33.803,24.978 L33.803,23.398 C33.803,22.861 34.239,22.424 34.773,22.424 C35.308,22.424 35.742,22.861 35.742,23.398 L35.742,25.028 L36.198,25.159 C37.874,25.641 39.380,26.954 40.258,28.723 C40.389,28.936 40.419,29.229 40.341,29.509 C40.264,29.783 40.098,30.002 39.886,30.109 Z" class="cls-1"/>
</svg>
