<svg xmlns="http://www.w3.org/2000/svg" xmlns:xlink="http://www.w3.org/1999/xlink" preserveAspectRatio="xMidYMid" width="71.5" height="72.59" viewBox="0 0 71.5 72.59">
  <defs>
    <style>
      .cls-1 {
        fill: #ff6800;
        fill-rule: evenodd;
      }
    </style>
  </defs>
  <path d="M41.780,72.599 L41.780,69.387 C41.780,63.699 46.356,59.073 51.980,59.073 L61.289,59.073 C66.913,59.073 71.489,63.699 71.490,69.387 L71.490,72.599 L41.780,72.599 ZM69.714,69.387 C69.714,64.690 65.934,60.868 61.289,60.868 L51.980,60.868 C47.335,60.868 43.555,64.690 43.555,69.387 L43.555,70.803 L69.714,70.803 L69.714,69.387 ZM56.634,55.383 C52.578,55.383 49.278,52.047 49.278,47.946 C49.278,43.844 52.578,40.507 56.634,40.507 C60.690,40.507 63.989,43.844 63.989,47.946 C63.989,52.047 60.690,55.383 56.634,55.383 ZM56.634,42.303 C53.558,42.303 51.054,44.835 51.053,47.946 C51.053,51.058 53.557,53.589 56.634,53.589 C59.711,53.589 62.214,51.058 62.214,47.946 C62.214,44.835 59.711,42.303 56.634,42.303 ZM62.423,35.293 C62.004,35.529 61.459,35.514 61.050,35.255 L56.035,32.059 L38.140,32.059 C35.744,32.059 33.794,30.087 33.794,27.664 L33.794,23.944 L15.579,23.944 L10.566,27.139 C10.153,27.401 9.614,27.417 9.190,27.181 C8.759,26.941 8.491,26.481 8.491,25.983 L8.491,4.401 C8.491,1.979 10.441,0.008 12.837,0.008 L38.980,0.008 C41.376,0.008 43.326,1.978 43.326,4.401 L43.326,8.121 L58.776,8.121 C61.172,8.121 63.121,10.093 63.121,12.515 L63.121,34.096 C63.121,34.594 62.854,35.053 62.423,35.293 ZM41.550,4.401 C41.550,2.969 40.397,1.802 38.980,1.802 L12.837,1.802 C11.420,1.802 10.267,2.969 10.267,4.401 L10.267,25.209 L14.632,22.427 C14.917,22.246 15.245,22.150 15.580,22.150 L33.794,22.150 L33.794,12.515 C33.794,11.343 34.247,10.240 35.068,9.409 C35.890,8.579 36.980,8.121 38.139,8.121 L38.140,8.121 L41.550,8.121 L41.550,4.401 ZM61.347,12.515 C61.347,11.082 60.193,9.915 58.776,9.915 L38.140,9.915 C36.723,9.915 35.570,11.082 35.570,12.515 L35.570,27.664 C35.570,29.097 36.723,30.263 38.140,30.263 L56.035,30.263 C56.370,30.263 56.697,30.359 56.980,30.538 L61.347,33.321 L61.347,12.515 ZM14.866,40.507 C18.922,40.507 22.221,43.844 22.221,47.946 C22.221,52.047 18.922,55.383 14.866,55.383 C10.810,55.383 7.510,52.047 7.510,47.946 C7.510,43.844 10.810,40.507 14.866,40.507 ZM14.866,53.589 C17.943,53.589 20.446,51.058 20.446,47.946 C20.446,44.835 17.943,42.303 14.866,42.303 C11.789,42.303 9.285,44.835 9.285,47.946 C9.285,51.058 11.789,53.589 14.866,53.589 ZM19.521,59.073 C25.145,59.073 29.721,63.699 29.721,69.387 L29.721,72.599 L0.012,72.599 L0.012,69.387 C0.012,63.699 4.587,59.073 10.211,59.073 L19.521,59.073 ZM1.787,69.387 L1.787,70.803 L27.945,70.803 L27.945,69.387 C27.945,64.689 24.166,60.867 19.520,60.867 L10.211,60.867 C5.566,60.867 1.787,64.689 1.787,69.387 Z" class="cls-1"/>
</svg>
