<svg xmlns="http://www.w3.org/2000/svg" xmlns:xlink="http://www.w3.org/1999/xlink" preserveAspectRatio="xMidYMid" width="70" height="68.06" viewBox="0 0 70 68.06">
  <defs>
    <style>
      .cls-1 {
        fill: #ff6800;
        fill-rule: evenodd;
      }
    </style>
  </defs>
  <path d="M68.999,41.735 L65.999,41.735 L65.999,52.126 C65.999,55.997 62.967,59.030 59.095,59.030 L37.113,59.030 L36.967,59.237 C33.032,64.836 26.927,68.048 20.217,68.048 C9.074,68.048 0.008,58.982 0.008,47.839 C0.008,45.380 0.481,42.921 1.455,40.322 L1.486,6.914 C1.486,3.042 4.519,0.009 8.392,0.009 L49.782,0.009 C53.653,0.009 56.686,3.042 56.686,6.914 L56.686,11.835 L59.095,11.835 C62.967,11.835 65.999,14.868 65.999,18.740 L65.999,24.969 L68.999,24.969 C69.620,24.969 69.991,25.340 69.991,25.961 L69.991,40.743 C69.991,41.364 69.620,41.735 68.999,41.735 ZM20.217,66.064 C30.267,66.064 38.442,57.888 38.442,47.839 C38.442,37.789 30.267,29.614 20.217,29.614 C10.168,29.614 1.993,37.789 1.993,47.839 C1.993,57.888 10.168,66.064 20.217,66.064 ZM54.703,6.914 C54.703,4.155 52.541,1.993 49.782,1.993 L8.392,1.993 C5.678,1.993 3.470,4.200 3.470,6.914 L3.471,7.092 C3.638,9.752 5.799,11.835 8.392,11.835 L54.703,11.835 L54.703,6.914 ZM63.868,18.740 C63.868,15.981 61.706,13.819 58.947,13.819 L8.392,13.819 C6.950,13.819 5.402,13.302 4.248,12.438 L3.470,11.854 L3.470,36.530 L4.339,35.427 C8.243,30.472 14.030,27.630 20.217,27.630 C31.361,27.630 40.427,36.695 40.427,47.839 C40.427,50.687 39.794,53.555 38.546,56.362 L38.242,57.046 L59.095,57.046 C61.854,57.046 64.015,54.885 64.015,52.126 L64.015,41.735 L58.651,41.735 C54.028,41.735 50.268,37.975 50.268,33.352 C50.268,28.730 54.028,24.969 58.651,24.969 L63.868,24.969 L63.868,18.740 ZM68.007,26.952 L58.651,26.952 C55.123,26.952 52.252,29.823 52.252,33.352 C52.252,36.881 55.123,39.751 58.651,39.751 L68.007,39.751 L68.007,26.952 ZM57.363,33.352 C57.363,32.731 57.734,32.360 58.355,32.360 L61.607,32.360 C62.229,32.360 62.600,32.731 62.600,33.352 C62.600,33.973 62.229,34.344 61.607,34.344 L58.355,34.344 C57.734,34.344 57.363,33.973 57.363,33.352 ZM18.827,48.839 C15.717,48.273 13.460,45.491 13.460,42.222 C13.460,39.044 15.675,36.321 18.847,35.601 L19.226,35.514 L19.226,33.795 C19.226,33.175 19.596,32.804 20.217,32.804 C20.839,32.804 21.209,33.175 21.209,33.795 L21.209,35.532 L21.608,35.604 C24.718,36.170 26.975,38.953 26.975,42.222 C26.975,42.842 26.603,43.213 25.982,43.213 C25.361,43.213 24.990,42.842 24.990,42.222 C24.990,40.272 23.703,38.443 21.862,37.773 L21.209,37.536 L21.209,47.210 L21.608,47.282 C24.718,47.848 26.975,50.631 26.975,53.900 C26.975,57.077 24.760,59.800 21.588,60.520 L21.209,60.607 L21.209,61.882 C21.209,62.503 20.839,62.874 20.217,62.874 C19.596,62.874 19.226,62.503 19.226,61.882 L19.226,60.589 L18.827,60.517 C15.717,59.951 13.460,57.169 13.460,53.900 C13.460,53.278 13.830,52.908 14.452,52.908 C15.073,52.908 15.444,53.278 15.444,53.900 C15.444,55.849 16.731,57.678 18.573,58.348 L19.226,58.585 L19.226,48.911 L18.827,48.839 ZM19.226,37.536 L18.573,37.773 C16.643,38.475 15.444,40.179 15.444,42.222 C15.444,44.210 16.601,45.923 18.538,46.803 L19.226,47.116 L19.226,37.536 ZM21.209,58.585 L21.862,58.348 C23.762,57.657 24.990,55.911 24.990,53.900 C24.990,51.831 23.733,49.984 21.862,49.304 L21.209,49.066 L21.209,58.585 Z" class="cls-1"/>
</svg>
