<svg xmlns="http://www.w3.org/2000/svg" xmlns:xlink="http://www.w3.org/1999/xlink" preserveAspectRatio="xMidYMid" width="53.032" height="56" viewBox="0 0 53.032 56">
  <defs>
    <style>
      .cls-1 {
        fill: #ff6800;
        fill-rule: evenodd;
      }
    </style>
  </defs>
  <path d="M52.037,51.908 L49.555,51.908 L49.555,55.000 C49.555,55.598 49.158,55.997 48.562,55.997 C47.966,55.997 47.569,55.598 47.569,55.000 L47.569,51.908 L4.880,51.908 L4.880,55.000 C4.880,55.598 4.483,55.997 3.887,55.997 C3.291,55.997 2.894,55.598 2.894,55.000 L2.894,51.908 L1.008,51.908 C0.412,51.908 0.015,51.409 0.015,50.911 L0.015,0.989 C0.015,0.391 0.412,-0.008 1.008,-0.008 L52.037,-0.008 C52.632,-0.008 53.030,0.391 53.030,0.989 L53.030,50.911 C53.030,51.509 52.632,51.908 52.037,51.908 ZM25.529,1.987 L2.001,1.987 L2.001,37.945 L25.529,37.945 L25.529,1.987 ZM51.044,1.987 L27.515,1.987 L27.515,37.945 L51.044,37.945 L51.044,1.987 ZM51.044,39.940 L2.001,39.940 L2.001,49.914 L51.044,49.914 L51.044,39.940 ZM24.537,43.530 L27.813,43.530 C28.409,43.530 28.905,43.929 28.905,44.528 C28.905,45.126 28.508,45.525 27.912,45.525 L24.537,45.525 C23.941,45.525 23.544,45.126 23.544,44.528 C23.544,43.929 23.941,43.530 24.537,43.530 ZM31.883,20.818 C32.479,20.818 32.876,21.217 32.876,21.815 L32.876,25.206 C32.876,25.805 32.479,26.203 31.883,26.203 C31.387,26.203 30.890,25.705 30.890,25.206 L30.890,21.815 C30.890,21.217 31.288,20.818 31.883,20.818 ZM20.069,20.818 C20.665,20.818 21.062,21.217 21.062,21.815 L21.062,25.206 C21.062,25.805 20.665,26.203 20.069,26.203 C19.573,26.203 19.076,25.705 19.076,25.206 L19.076,21.815 C19.076,21.217 19.474,20.818 20.069,20.818 Z" class="cls-1"/>
</svg>
