<svg xmlns="http://www.w3.org/2000/svg" xmlns:xlink="http://www.w3.org/1999/xlink" preserveAspectRatio="xMidYMid" width="52.25" height="52.24" viewBox="0 0 52.25 52.24">
  <defs>
    <style>
      .cls-1 {
        fill: #ff6800;
        fill-rule: evenodd;
      }
    </style>
  </defs>
  <path d="M43.136,9.445 L41.126,12.957 L43.136,16.469 L52.107,16.469 L51.635,17.668 C49.812,22.293 45.321,25.282 40.192,25.282 C38.324,25.282 36.685,24.958 35.204,24.294 L33.318,26.179 L49.719,42.575 C51.923,44.777 51.816,48.088 49.466,50.447 C48.265,51.642 46.808,52.243 45.377,52.243 C44.032,52.243 42.709,51.712 41.641,50.645 L25.240,34.254 L9.665,49.821 C8.637,50.849 7.358,51.393 5.966,51.393 C4.456,51.393 2.973,50.744 1.789,49.566 C-0.532,47.235 -0.614,43.945 1.592,41.740 L17.155,26.175 L15.103,24.125 C14.569,24.190 13.666,24.288 13.077,24.288 C6.280,24.288 0.751,18.757 0.751,11.961 C0.751,6.656 4.598,2.365 8.170,0.623 L9.434,0.007 L9.434,9.116 L12.947,11.126 L16.460,9.116 L16.460,0.149 L17.660,0.621 C22.325,2.458 25.223,6.841 25.223,12.060 C25.223,13.875 24.881,15.513 24.182,17.048 L25.232,18.097 L28.123,15.206 C28.057,14.669 27.958,13.757 27.958,13.167 C27.958,6.358 33.490,0.819 40.291,0.819 C45.616,0.819 49.903,4.636 51.632,8.182 L52.248,9.445 L43.136,9.445 ZM42.883,49.404 C44.393,50.912 46.588,50.832 48.224,49.205 C49.881,47.542 49.986,45.325 48.477,43.817 L32.076,27.421 L26.482,33.012 L42.883,49.404 ZM22.341,16.818 C23.099,15.373 23.467,13.817 23.467,12.061 C23.467,8.049 21.485,4.617 18.216,2.819 L18.216,10.136 L12.946,13.150 L7.677,10.137 L7.677,2.932 C4.999,4.729 2.507,8.026 2.507,11.961 C2.507,17.790 7.248,22.532 13.076,22.532 C13.692,22.532 14.888,22.386 15.297,22.329 L15.729,22.270 L18.396,24.934 L23.990,19.338 L22.040,17.390 L22.341,16.818 ZM40.292,2.576 C34.459,2.576 29.715,7.328 29.715,13.168 C29.715,13.910 29.916,15.388 29.918,15.403 L29.978,15.835 L2.834,42.983 C1.321,44.494 1.403,46.690 3.032,48.324 C4.627,49.912 6.945,50.057 8.423,48.580 L34.861,22.155 L35.432,22.454 C36.828,23.185 38.341,23.526 40.192,23.526 C44.199,23.526 47.633,21.525 49.439,18.223 L42.117,18.223 L39.101,12.956 L42.117,7.689 L49.320,7.689 C47.531,5.040 44.238,2.576 40.292,2.576 ZM6.800,47.195 C5.347,47.195 4.165,46.013 4.165,44.561 C4.165,43.109 5.347,41.928 6.800,41.928 C8.252,41.928 9.434,43.109 9.434,44.561 C9.434,46.013 8.252,47.195 6.800,47.195 ZM6.800,43.683 C6.315,43.683 5.921,44.077 5.921,44.561 C5.921,45.045 6.315,45.439 6.800,45.439 C7.284,45.439 7.678,45.045 7.678,44.561 C7.678,44.077 7.284,43.683 6.800,43.683 ZM43.685,41.928 C45.137,41.928 46.319,43.109 46.319,44.561 C46.319,46.013 45.137,47.195 43.685,47.195 C42.232,47.195 41.050,46.013 41.050,44.561 C41.050,43.109 42.232,41.928 43.685,41.928 ZM43.685,45.439 C44.170,45.439 44.563,45.045 44.563,44.561 C44.563,44.077 44.170,43.683 43.685,43.683 C43.200,43.683 42.807,44.077 42.807,44.561 C42.807,45.045 43.200,45.439 43.685,45.439 Z" class="cls-1"/>
</svg>
