<?xml version="1.0" standalone="no"?>
<!DOCTYPE svg PUBLIC "-//W3C//DTD SVG 20010904//EN"
 "http://www.w3.org/TR/2001/REC-SVG-20010904/DTD/svg10.dtd">
<svg version="1.0" xmlns="http://www.w3.org/2000/svg"
 width="260.000000pt" height="260.000000pt" viewBox="0 0 260.000000 260.000000"
 preserveAspectRatio="xMidYMid meet">
<metadata>
Created by potrace 1.11, written by Peter Selinger 2001-2013
</metadata>
<g transform="translate(0.000000,260.000000) scale(0.100000,-0.100000)"
fill="#000000" stroke="none">
<path d="M1079 1810 c-15 -4 -50 -11 -79 -14 -29 -4 -91 -13 -139 -21 -47 -8
-104 -17 -126 -20 -60 -10 -64 -11 -69 -16 -3 -3 4 -6 15 -6 12 -1 64 -9 118
-18 53 -9 107 -18 121 -20 14 -2 68 -11 120 -20 52 -9 111 -18 130 -21 19 -3
46 -7 60 -9 14 -3 43 -7 65 -11 22 -3 54 -9 70 -13 17 -4 38 -7 49 -5 24 3
241 52 286 64 19 5 59 14 89 21 77 17 62 22 -116 44 -13 2 -42 6 -65 10 -24 4
-54 8 -68 10 -14 2 -45 7 -70 11 -25 4 -56 8 -70 9 -14 1 -44 6 -68 10 -110
18 -219 25 -253 15z"/>
<path d="M20 1391 l0 -349 191 1 191 2 2 220 c1 190 3 220 16 216 8 -2 29 -5
45 -8 44 -7 667 -133 688 -139 16 -5 17 -28 17 -290 l0 -284 198 2 197 3 0
277 c0 172 4 281 10 286 6 5 37 15 70 20 68 13 48 9 345 67 124 24 237 46 252
49 l28 5 -1 -212 c0 -117 0 -220 0 -229 1 -16 15 -18 151 -18 l150 0 0 364 0
365 -25 -5 c-44 -7 -69 -12 -140 -28 -39 -8 -82 -17 -95 -20 -14 -2 -178 -37
-365 -76 -350 -73 -369 -77 -407 -84 -13 -2 -43 -9 -68 -15 -75 -18 -147 -12
-330 24 -27 5 -130 24 -170 31 -35 7 -191 35 -215 40 -11 2 -58 11 -105 19
-47 8 -94 17 -105 19 -22 4 -216 40 -305 56 -30 5 -90 17 -132 25 -42 8 -80
15 -83 15 -3 0 -5 -157 -5 -349z"/>
</g>
</svg>
